{
  "server-init": [
    "server.check"
  ],
  "dev": true,
  "info": {
    "config-path": "config/template.json",
    "g-secret": "google client secret json path",
    "default-emails-to": [
      "example@example.com",
      "example@beluga.cf"
    ],
    "default-email-from": "example@example.com",
    "devices": "config/devices.json"
  },
  "welcome": "Hello, fellow human"
}
